…
Code to do this using the "dplyr" package

```r
baseball_dplyr<- baseball%>%
  dplyr::group_by(id)%>%
  mutate(cyear = year - min(year) + 1)
baseball_dplyr
```

```
## # A tibble: 16,329 × 23
## # Groups:   id [1,152]
##    id       year stint team  lg        g    ab     r     h   X2b   X3b    hr   rbi    sb
##    <chr>   <int> <int> <chr> <chr> <int> <int> <int> <int> <int> <int> <int> <int> <int>
##  1 ansonc…  1871     1 RC1   ""       25   120    29    39    11     3     0    16     6
##  2 forced…  1871     1 WS3   ""       32   162    45    45     9     4     0    29     8
##  3 matheb…  1871     1 FW1   ""       19    89    15    24     3     1     0    10     2
##  4 startj…  1871     1 NY2   ""       33   161    35    58     5     1     1    34     4
##  5 suttoe…  1871     1 CL1   ""       29   128    35    45     3     7     3    23     3
##  6 whited…  1871     1 CL1   ""       29   146    40    47     6     5     1    21     2
##  7 yorkto…  1871     1 TRO   ""       29   145    36    37     5     7     2    23     2
##  8 ansonc…  1872     1 PH1   ""       46   217    60    90    10     7     0    50     6
##  9 burdoj…  1872     1 BR2   ""       37   174    26    46     3     0     0    15     0
## 10 forced…  1872     1 TRO   ""       25   130    40    53    11     0     0    16     2
## # … with 16,319 more rows, and 9 more variables: cs <int>, bb <int>, so <int>,
## #   ibb <int>, hbp <int>, sh <int>, sf <int>, gidp <int>, cyear <dbl>
```
…
