…
```r
# Rewrite the above example using functionality from the package "dplyr"
baseball.2 <- baseball %>% 
  group_by(id) %>% 
  mutate(cyear = year - min(year) + 1) %>% 
  ungroup() %>% 
  arrange(id, cyear) %>% 
  print(n = 5)
```

```
## # A tibble: 21,699 × 23
##   id         year stint team  lg        g    ab     r     h   X2b   X3b    hr   rbi
##   <chr>     <int> <int> <chr> <chr> <int> <int> <int> <int> <int> <int> <int> <int>
## 1 aaronha01  1954     1 ML1   NL      122   468    58   131    27     6    13    69
## 2 aaronha01  1955     1 ML1   NL      153   602   105   189    37     9    27   106
## 3 aaronha01  1956     1 ML1   NL      153   609   106   200    34    14    26    92
## 4 aaronha01  1957     1 ML1   NL      151   615   118   198    27     6    44   132
## 5 aaronha01  1958     1 ML1   NL      153   601   109   196    34     4    30    95
##      sb    cs    bb    so   ibb   hbp    sh    sf  gidp cyear
##   <int> <int> <int> <int> <int> <int> <int> <int> <int> <dbl>
## 1     2     2    28    39    NA     3     6     4    13    84
## 2     3     1    49    61     5     3     7     4    20    85
## 3     2     4    37    54     6     2     5     7    21    86
## 4     1     1    57    58    15     0     0     3    13    87
## 5     4     1    59    49    16     1     0     3    21    88
## # … with 21,694 more rows
```
…
